<?xml version="1.0" encoding="UTF-8" standalone="no"?>
<!DOCTYPE svg PUBLIC "-//W3C//DTD SVG 1.1//EN" "http://www.w3.org/Graphics/SVG/1.1/DTD/svg11.dtd">
<svg width="100%" height="100%" viewBox="0 0 304 73" version="1.1" xmlns="http://www.w3.org/2000/svg" xmlns:xlink="http://www.w3.org/1999/xlink" xml:space="preserve" style="fill-rule:evenodd;clip-rule:evenodd;stroke-linejoin:round;stroke-miterlimit:1.41421;">
    <g transform="matrix(1,0,0,1,-1288,-499.999)">
        <clipPath id="_clip1">
            <path d="M1563.79,520.776L1569.42,520.776L1569.42,525.209L1569.68,525.209C1570.53,523.69 1572.05,522.399 1573.88,521.337C1575.72,520.275 1577.68,519.741 1579.77,519.741C1583.65,519.741 1586.61,520.956 1588.66,523.384C1590.71,525.816 1591.73,529.07 1591.73,533.147L1591.73,555.762L1585.85,555.762L1585.85,534.058C1585.85,528.159 1583.27,525.209 1578.11,525.209C1575.68,525.209 1573.52,526.194 1571.98,528.168C1570.45,530.143 1569.68,532.431 1569.68,535.035L1569.68,555.762L1563.79,555.762L1563.79,520.776ZM1539.36,520.037C1549.07,520.037 1556.95,527.129 1556.95,538.229C1556.95,549.319 1549.07,556.413 1539.36,556.413C1529.65,556.413 1521.78,549.319 1521.78,538.229C1521.78,527.129 1529.65,520.037 1539.36,520.037ZM1547.67,547.721C1549.78,545.305 1550.83,542.132 1550.83,538.204C1550.83,534.278 1549.78,531.11 1547.67,528.686C1545.57,526.27 1542.81,525.059 1539.4,525.059C1535.93,525.059 1533.15,526.27 1531.05,528.686C1528.94,531.11 1527.9,534.278 1527.9,538.204C1527.9,542.132 1528.94,545.305 1531.05,547.721C1533.15,550.138 1535.93,551.344 1539.4,551.344C1542.81,551.344 1545.57,550.138 1547.67,547.721ZM1508.72,555.762L1508.72,520.781L1514.69,520.781L1514.69,555.762L1508.72,555.762ZM1514.27,507.945C1514.95,508.656 1515.3,509.511 1515.3,510.508C1515.3,511.457 1514.95,512.287 1514.27,512.998C1513.58,513.712 1512.74,514.067 1511.74,514.067C1510.75,514.067 1509.91,513.712 1509.22,512.998C1508.53,512.287 1508.19,511.457 1508.19,510.508C1508.19,509.511 1508.53,508.656 1509.22,507.945C1509.91,507.234 1510.75,506.876 1511.74,506.876C1512.74,506.876 1513.58,507.234 1514.27,507.945ZM1485.47,513.224L1491.29,513.224L1491.29,520.78L1500.49,520.78L1500.49,525.93L1491.29,525.93L1491.29,546.999C1491.29,548.464 1491.71,549.524 1492.54,550.181C1493.37,550.838 1494.62,551.166 1496.28,551.166C1496.74,551.166 1497.15,551.153 1497.53,551.126C1497.91,551.101 1498.38,550.862 1498.93,550.761L1499.54,555.783C1498.58,555.986 1497.68,556.136 1496.85,556.238C1496.02,556.339 1495.17,556.391 1494.32,556.391C1491.44,556.391 1489.25,555.594 1487.74,554.003C1486.22,552.415 1485.47,549.877 1485.47,546.394L1485.47,513.224ZM1476.97,528.64C1477.92,531.596 1477.95,534.393 1477.95,537.473L1477.95,555.723L1472.52,555.723L1472.52,552.51L1472.87,547.317C1472.82,547.317 1470.06,556.461 1460.55,556.461C1456.86,556.461 1453.78,555.395 1451.3,553.271C1448.82,551.147 1447.57,548.336 1447.57,544.835C1447.57,541.06 1449.04,538.099 1451.97,535.95C1454.9,533.797 1458.52,532.726 1462.82,532.726C1466.61,532.726 1469.72,533.417 1472.16,534.798C1472.19,534.816 1472.22,534.834 1472.25,534.85C1472.25,534.85 1472.29,534.839 1472.36,534.816C1472.43,532.456 1471.87,529.326 1470.26,527.675C1465.12,522.412 1454.01,527.627 1454.01,527.627L1454.01,522.02C1454.39,521.852 1466.02,516.11 1474.04,523.753C1475.28,524.936 1476.32,526.61 1476.97,528.64ZM1471.3,542.799C1471.41,542.448 1472.21,539.462 1471.88,539.305C1467.14,536.969 1458.62,536.348 1454.73,540.745C1451.87,543.987 1453.26,548.921 1457.29,550.748C1461.16,552.503 1465.12,551.07 1467.92,548.336C1469.49,546.791 1470.69,544.835 1471.3,542.799ZM1428.53,520.78L1434.21,520.78L1434.21,526.081C1435.72,524.113 1440.17,519.997 1445.55,519.997L1445.55,526.183C1438.51,526.183 1434.51,530.498 1434.51,530.498L1434.51,555.763L1428.53,555.763L1428.53,520.78ZM1418.01,507.913C1418.71,508.633 1419.06,509.499 1419.06,510.509C1419.06,511.47 1418.71,512.311 1418.01,513.031C1417.32,513.754 1416.46,514.114 1415.45,514.114C1414.45,514.114 1413.59,513.754 1412.9,513.031C1412.2,512.311 1411.86,511.47 1411.86,510.509C1411.86,509.499 1412.2,508.633 1412.9,507.913C1413.59,507.193 1414.45,506.83 1415.45,506.83C1416.46,506.83 1417.32,507.193 1418.01,507.913ZM1412.43,555.764L1412.43,520.781L1418.4,520.781L1418.4,555.764L1412.43,555.764ZM1400.88,525.076C1403.81,528.267 1405.28,533.282 1405.28,538.005C1405.28,542.723 1403.81,548.272 1400.88,551.462C1397.94,554.65 1394.45,556.243 1390.41,556.243C1388.03,556.243 1385.89,555.735 1384,554.716C1382.1,553.692 1380.69,552.416 1379.75,550.888L1379.5,550.888L1379.75,555.224L1379.75,572L1373.63,572L1373.63,520.779L1379.89,520.779L1379.37,525.65L1379.71,525.65C1380.64,524.122 1382.1,522.847 1384,521.827C1385.89,520.803 1388.03,520.295 1390.41,520.295C1394.45,520.295 1397.94,521.893 1400.88,525.076ZM1389.63,550.753C1395.07,550.753 1399.48,546.568 1399.48,538.268C1399.48,529.97 1395.07,525.785 1389.63,525.785C1384.19,525.785 1379.19,529.97 1379.19,538.268C1379.19,546.568 1384.19,550.753 1389.63,550.753ZM1353.78,551.587C1358.17,551.587 1360.9,549.484 1360.9,546.1C1360.9,542.704 1357.22,541.732 1352.95,540.603C1347.45,539.154 1341.22,537.509 1341.22,530.091C1341.22,527.224 1342.35,524.621 1344.42,522.76C1346.62,520.767 1349.75,519.716 1353.45,519.716C1359.64,519.716 1363.45,522.515 1365.56,524.864L1365.79,525.112L1362.97,529.659L1362.57,529.146C1360.57,526.527 1357.16,524.961 1353.45,524.961C1349.56,524.961 1346.85,527.013 1346.85,529.949C1346.85,532.816 1350.27,533.704 1354.24,534.733C1359.71,536.155 1366.53,537.923 1366.53,545.958C1366.53,549.011 1365.36,551.752 1363.23,553.673C1360.93,555.741 1357.62,556.837 1353.65,556.837C1348.18,556.837 1343.75,554.956 1340.47,551.254L1340.25,551L1343.27,546.34L1343.66,546.824C1345.55,549.196 1349.41,551.587 1353.78,551.587ZM1315.6,539.678L1315.6,534.276L1322.47,534.276L1313.01,512.86L1303.56,534.276L1310.42,534.276L1310.42,539.678L1301.31,539.678L1294.58,555.745L1288,555.763L1312.55,499.999L1313.48,499.999L1338.03,555.763L1331.45,555.745L1324.71,539.678L1315.6,539.678Z"/>
        </clipPath>
        <g clip-path="url(#_clip1)">
            <rect x="1286" y="498" width="306" height="76" style="fill:white;fill-rule:nonzero;"/>
        </g>
    </g>
</svg>
